<?xml version="1.0" encoding="UTF-8"?>
<svg width="62px" height="55px" viewBox="0 0 62 55" version="1.1" xmlns="http://www.w3.org/2000/svg" xmlns:xlink="http://www.w3.org/1999/xlink">
    <!-- Generator: Sketch 51.3 (57544) - http://www.bohemiancoding.com/sketch -->
    <title>Icon1</title>
    <desc>Created with Sketch.</desc>
    <defs>
        <rect id="path-1" x="0" y="0" width="62" height="55" rx="5"></rect>
    </defs>
    <g id="Page-1" stroke="none" stroke-width="1" fill="none" fill-rule="evenodd">
        <g id="V1" transform="translate(-405.000000, -783.000000)">
            <g id="Icon1" transform="translate(405.000000, 783.000000)">
                <rect id="Rectangle-4" stroke="#FFFFFF" stroke-width="2" fill-rule="nonzero" x="1" y="1" width="60" height="53" rx="5"></rect>
                <path d="M2.5,14.5 L60.5,14.5" id="Line" stroke="#FFFFFF" stroke-width="2" stroke-linecap="square" fill-rule="nonzero"></path>
                <circle id="Oval-2" fill="#FFFFFF" fill-rule="nonzero" cx="7" cy="8" r="2"></circle>
                <circle id="Oval-2-Copy" fill="#FFFFFF" fill-rule="nonzero" cx="14" cy="8" r="2"></circle>
                <circle id="Oval-2-Copy-2" fill="#FFFFFF" fill-rule="nonzero" cx="21" cy="8" r="2"></circle>
                <g id="star_border---material">
                    <mask id="mask-2" fill="white">
                        <use xlink:href="#path-1"></use>
                    </mask>
                    <g id="Mask" fill-rule="nonzero"></g>
                    <text id="star---simple-line-icons" mask="url(#mask-2)" font-family="simple-line-icons" font-size="35" font-weight="normal" fill="#FFFFFF">
                        <tspan x="28" y="53"></tspan>
                    </text>
                </g>
            </g>
        </g>
    </g>
</svg>