
		<svg xmlns="http://www.w3.org/2000/svg" xmlns:xlink="http://www.w3.org/1999/xlink" version="1.1" width="3074.030936442697" height="830.7948897085596">
			
			<g transform="scale(3.7015468221348464) translate(10, 10)">
				<defs id="SvgjsDefs1082"/><g id="SvgjsG1083" featureKey="root" fill="#fff" transform="matrix(1,0,0,1,0,0)"/><g id="SvgjsG1084" featureKey="symbol1" fill="#fff" transform="matrix(2.1702829217792505,0,0,2.1702829217792505,3.9879816069256027,-6.2969836455906965)"><g xmlns="http://www.w3.org/2000/svg"><path fill="none" d="M39.813,38.375c0.038-0.046,0.073-0.096,0.112-0.142C39.885,38.281,39.849,38.326,39.813,38.375z"/><path fill="none" d="M21.489,55.269c0.003-0.005,0.023-0.016,0.022-0.018C21.502,55.254,21.495,55.262,21.489,55.269z"/><path fill="none" d="M21.479,55.286C21.477,55.293,21.477,55.294,21.479,55.286L21.479,55.286z"/><circle fill="none" cx="47.307" cy="48.27" r="5.282"/><path d="M94.784,18.836c-0.114,0.283-0.167,0.737-0.452,1.231c-0.13,0.251-0.256,0.537-0.422,0.831   c-0.193,0.276-0.402,0.576-0.626,0.895c-0.244,0.302-0.544,0.592-0.834,0.913c-0.318,0.295-0.68,0.578-1.044,0.879   c-0.805,0.542-1.632,1.059-2.684,1.467c-0.996,0.432-2.097,0.698-3.265,0.879c-0.383,0.06-0.785,0.091-1.183,0.127   c-0.021-0.035-0.04-0.058-0.055-0.052c-0.147,0.045-0.238,0.072-0.3,0.091c-0.701,0.056-1.416,0.098-2.146,0.137   c-0.641,0.029-1.289,0.061-1.97,0.11c-0.137,0.008-0.259,0.022-0.389,0.033c0.104-0.125,0.208-0.251,0.293-0.401   c0.223-0.368,0.371-0.823,0.379-1.259c0.026-0.222-0.012-0.43-0.023-0.643l-0.063-0.558c-0.058-0.388-0.045-0.731-0.068-1.095   c0.031-0.354,0.009-0.721,0.092-1.052c0.031-0.169,0.062-0.335,0.093-0.498c0.055-0.155,0.108-0.307,0.16-0.455   c0.083-0.31,0.27-0.548,0.398-0.795c0.132-0.248,0.335-0.413,0.474-0.595c0.138-0.187,0.312-0.292,0.438-0.398   c0.262-0.206,0.411-0.324,0.411-0.324s-0.163,0.099-0.448,0.272c-0.141,0.092-0.331,0.178-0.495,0.349   c-0.164,0.167-0.397,0.317-0.567,0.557c-0.166,0.239-0.396,0.476-0.526,0.791c-0.075,0.153-0.153,0.31-0.232,0.47   c-0.055,0.17-0.11,0.343-0.167,0.52c-0.132,0.353-0.158,0.734-0.237,1.119c-0.026,0.384-0.082,0.802-0.072,1.173l-0.005,0.581   c-0.015,0.165-0.001,0.337-0.044,0.485c-0.045,0.312-0.175,0.567-0.349,0.788c-0.17,0.229-0.399,0.402-0.627,0.57   c-0.263,0.173-0.547,0.366-0.77,0.526c-0.062,0.046-0.12,0.08-0.18,0.119c-1.13,0.158-2.272,0.348-3.407,0.621   c-1.322,0.307-2.6,0.798-3.818,1.412c-0.62,0.345-1.244,0.703-1.681,1.037l-0.36,0.251l-0.178,0.125l-0.235,0.19   c-0.235,0.195-0.469,0.387-0.698,0.577c-0.907,0.775-1.713,1.577-2.411,2.368c-0.697,0.793-1.284,1.577-1.772,2.303   c-0.232,0.373-0.449,0.722-0.65,1.044c-0.044,0.084-0.078,0.151-0.12,0.233c-2.028-1.863-4.55-3.201-7.362-3.747   c0.104-0.346,0.211-0.703,0.317-1.073c0.318-0.916,0.531-2.17,0.779-3.399c0.233-1.226,0.282-2.671,0.064-4.082   c-0.207-1.419-0.723-2.907-1.67-4.17c-0.934-1.278-2.332-2.205-3.783-2.676c-1.353-0.412-2.926-0.57-4.285-0.548   c-0.477,0.01-0.934,0.043-1.394,0.072l-0.015-0.02c0,0-0.018,0.016-0.024,0.022c-0.321,0.021-0.642,0.035-0.956,0.059   c-0.507-0.076-1.127-0.237-1.756-0.423c-0.156-0.055-0.431-0.127-0.574-0.207c-0.172-0.069-0.334-0.166-0.484-0.279   c-0.145-0.114-0.281-0.238-0.385-0.378c-0.11-0.137-0.203-0.279-0.27-0.424c-0.146-0.281-0.233-0.542-0.285-0.725   c-0.053-0.184-0.084-0.289-0.084-0.289s0.008,0.109,0.021,0.301c0.012,0.192,0.042,0.469,0.13,0.797   c0.037,0.167,0.103,0.341,0.192,0.523c0.083,0.182,0.209,0.363,0.352,0.536c0.146,0.17,0.316,0.333,0.521,0.474   c0.144,0.111,0.265,0.181,0.396,0.255c-1.008,0.055-1.986,0.077-2.874-0.039c-1.085-0.137-2.044-0.551-2.613-1.298   c-0.354-0.391-0.541-0.775-0.761-1.16c-0.174-0.411-0.354-0.799-0.444-1.193c-0.238-0.772-0.282-1.486-0.291-2.069   c0.028-0.58,0.075-1.047,0.183-1.344c0.086-0.305,0.131-0.468,0.131-0.468s-0.061,0.158-0.174,0.455   c-0.136,0.292-0.227,0.754-0.312,1.347c-0.047,0.595-0.069,1.335,0.104,2.164c0.057,0.421,0.207,0.847,0.354,1.303   c0.192,0.439,0.412,0.949,0.711,1.34c0.586,0.951,1.753,1.583,2.941,1.836c1.207,0.271,2.458,0.315,3.747,0.354   c1.279,0.024,2.588,0.013,3.867,0.104c1.301,0.113,2.429,0.324,3.64,0.798c1.077,0.477,1.964,1.209,2.523,2.149   c0.568,0.932,0.851,2.029,0.904,3.123c0.059,1.108-0.06,2.147-0.36,3.179c-0.321,1.023-0.523,1.935-0.959,2.909   c-0.266,0.684-0.519,1.301-0.755,1.917c-3.421,0.176-6.684,1.501-9.26,3.687l-0.076-0.067l-0.016-0.012l-0.063-0.048l-0.126-0.095   l-0.252-0.19l-0.253-0.19l-0.452-0.26l-0.467-0.24l-0.235-0.111l-0.117-0.053l-0.03-0.013l-0.015-0.007l-0.146-0.049l-0.039-0.009   l-1.232-0.285l-1.525-0.189l-1.311-0.072l-1.213-0.066c-0.337-0.016-0.815-0.08-1.216-0.117c-0.564-0.07-1.108-0.159-1.658-0.261   c-0.082-0.058-0.163-0.119-0.215-0.195L30.74,33.59c-0.165-0.493-0.323-0.993-0.466-1.504c-0.148-0.532-0.308-1.067-0.481-1.6   c-0.187-0.531-0.407-1.049-0.675-1.541c-0.153-0.236-0.294-0.478-0.454-0.705l-0.529-0.641l0.445,0.695   c0.13,0.242,0.239,0.494,0.358,0.738c0.201,0.507,0.352,1.029,0.47,1.561c0.223,1.066,0.334,2.167,0.582,3.275v0.003   c-0.574-0.142-1.146-0.298-1.702-0.491c-0.744-0.257-1.475-0.556-2.167-0.917c-0.361-0.161-0.68-0.38-1.016-0.579l-0.251-0.151   l-0.062-0.038c0.004,0.005-0.054-0.038,0.002,0.007l-0.032-0.023l-0.127-0.094l-0.508-0.376c-0.362-0.25-0.62-0.502-0.914-0.752   c-0.297-0.237-0.562-0.533-0.836-0.817c-0.288-0.275-0.521-0.589-0.765-0.899c-0.26-0.301-0.461-0.636-0.666-0.971   c-0.227-0.326-0.388-0.68-0.547-1.038c-0.187-0.35-0.301-0.721-0.407-1.098c-0.138-0.371-0.197-0.756-0.243-1.146l-0.078-0.562   l-0.005-0.632c-0.013-0.427-0.002-0.84,0.041-1.236c0.029-0.402,0.059-0.809,0.12-1.226l0.339-2.501   c0.116-0.838,0.193-1.688,0.221-2.535c-0.012-0.426-0.002-0.851-0.031-1.272l-0.172-1.256l0.048,1.26   c-0.013,0.418-0.063,0.836-0.093,1.25c-0.109,0.829-0.267,1.648-0.463,2.464l-0.585,2.463c-0.103,0.41-0.178,0.838-0.251,1.271   c-0.088,0.436-0.14,0.862-0.169,1.277l-0.058,0.629c-0.008,0.269,0.014,0.46,0.02,0.695c0.009,0.452,0.037,0.903,0.148,1.341   c0.08,0.445,0.173,0.889,0.341,1.307c0.143,0.429,0.293,0.856,0.509,1.25c0.194,0.406,0.393,0.813,0.648,1.181   c0.239,0.379,0.476,0.765,0.765,1.105c0.342,0.461,0.759,0.931,1.18,1.362c-0.081-0.037-0.159-0.068-0.241-0.107   c-0.279-0.132-0.616-0.28-0.867-0.417l-0.436-0.23l-0.376-0.251c-0.253-0.164-0.484-0.376-0.71-0.569   c-0.433-0.412-0.804-0.844-1.088-1.242c-0.574-0.792-0.897-1.371-0.897-1.371s0.235,0.614,0.7,1.497   c0.229,0.443,0.543,0.939,0.938,1.44c0.209,0.24,0.417,0.495,0.678,0.724l0.395,0.35l0.398,0.291   c0.301,0.22,0.551,0.371,0.833,0.558c0.272,0.181,0.551,0.352,0.824,0.516c0.272,0.164,0.554,0.308,0.818,0.446   c0.284,0.117,0.532,0.256,0.805,0.332c0.277,0.078,0.485,0.175,0.787,0.195c0.013,0.001,0.026,0.003,0.039,0.004   c0.057,0.036,0.109,0.078,0.167,0.111c0.757,0.496,1.553,0.917,2.366,1.292c0.815,0.375,1.65,0.69,2.497,0.968   c0.834,0.271,1.733,0.506,2.597,0.699c0.432,0.084,0.782,0.171,1.281,0.252l1.298,0.2l1.201,0.186   c0.325,0.075,0.647,0.142,0.969,0.201l1.196,0.404l0.037,0.013c-0.05-0.017-0.147-0.049-0.129-0.042l0.003,0.003l0.005,0.006   l0.021,0.022l0.043,0.04c0.027,0.024,0.057,0.044,0.088,0.061c0.031,0.018,0.062,0.028,0.102,0.042l0.232,0.214l0.232,0.214   l0.094,0.086c-0.001,0.001-0.001,0.002-0.002,0.003c0,0-0.002-0.001,0,0c-0.002,0.002-0.003,0.004-0.005,0.007   c-0.021,0.004-0.039-0.003-0.046-0.017l0.01,0.047c0.002,0.007,0.003,0.011,0.005,0.017c-0.739,1.044-1.357,2.187-1.817,3.422   c-0.639,1.715-0.929,3.472-0.93,5.205c-0.162,0.168-0.355,0.365-0.531,0.506c-0.273,0.274-0.648,0.537-1.082,0.84   c-0.105,0.051-0.214,0.103-0.326,0.157l-0.171,0.089l-0.087,0.047l-0.044,0.024l-0.006,0.003c-0.165,0.04,0.22-0.051,0.177-0.041   l-0.018,0.004l-0.035,0.008c-0.359,0.078-0.805,0.206-1.146,0.254c-0.128-0.005-0.257-0.003-0.391,0.005   c-0.135,0.006-0.258,0.038-0.468,0.003c-0.382-0.044-0.769-0.048-1.209-0.154c-0.21-0.04-0.423-0.081-0.639-0.122   c-0.24-0.061-0.484-0.123-0.731-0.185c-0.493-0.125-0.997-0.252-1.509-0.382c-1.043-0.252-2.052-0.568-3.206-0.785   c-0.568-0.11-1.123-0.254-1.709-0.335l-1.778-0.186l-0.442-0.044l-0.027-0.003l-0.099-0.004l-0.053,0.002l-0.105,0.004   l-0.211,0.009l-0.843,0.036l-0.841,0.035c-0.28,0.014-0.593,0.092-0.885,0.136c-0.587,0.115-1.185,0.186-1.732,0.342   c-0.539,0.173-1.07,0.345-1.593,0.513c-0.526,0.154-0.994,0.428-1.476,0.629c-0.476,0.217-0.944,0.417-1.362,0.685   c-0.859,0.491-1.66,0.961-2.343,1.48c-0.348,0.249-0.688,0.478-0.997,0.712c-0.3,0.246-0.585,0.479-0.853,0.698   c-0.539,0.433-0.998,0.819-1.354,1.165c-0.726,0.671-1.14,1.054-1.14,1.054s0.453-0.335,1.247-0.92   c0.389-0.303,0.887-0.634,1.464-1.001c0.286-0.186,0.591-0.383,0.912-0.592c0.329-0.195,0.686-0.382,1.051-0.586   c0.718-0.431,1.544-0.798,2.416-1.176c0.426-0.212,0.893-0.351,1.363-0.505c0.476-0.138,0.938-0.349,1.443-0.436   c0.498-0.101,1.004-0.205,1.517-0.309c0.509-0.086,1.017-0.081,1.524-0.13c0.259-0.011,0.496-0.057,0.772-0.041l0.839,0.058   l0.842,0.058l0.211,0.015l0.105,0.007l0.053,0.003c-0.027-0.001,0.079,0.004-0.058-0.002l0.013,0.003l0.024,0.005l0.392,0.087   l1.554,0.339c0.515,0.13,1.029,0.328,1.536,0.485c0.428,0.129,0.863,0.292,1.297,0.456c-0.332,0.12-0.671,0.255-1.006,0.453   c-0.471,0.285-0.876,0.707-1.162,1.176c-0.514,0.904-1.019,1.806-1.524,2.617c-0.214,0.011-0.404,0.025-0.41,0.044   c-0.004,0.013-0.006,0.017-0.008,0.023c-0.029,0.033-0.129,0.096-0.327,0.132c-0.234,0.045-0.552,0.057-0.89,0.03   c-0.357-0.04-0.738-0.083-1.119-0.126c-0.379-0.055-0.81,0.003-1.176,0.002c-0.367,0.051-0.704,0.109-0.992,0.157   c-0.563,0.144-0.939,0.238-0.939,0.238s0.384-0.033,0.96-0.083c0.288-0.002,0.624-0.004,0.977,0.004   c0.353,0.062,0.703,0.057,1.078,0.172c0.375,0.105,0.75,0.211,1.102,0.311c0.367,0.088,0.72,0.137,1.055,0.134   c-0.225,0.312-0.449,0.602-0.677,0.854c-0.229,0.285-0.469,0.518-0.688,0.72c-0.21,0.211-0.404,0.383-0.581,0.505   c-0.342,0.259-0.537,0.407-0.537,0.407s0.209-0.13,0.575-0.355c0.189-0.105,0.401-0.259,0.633-0.452   c0.241-0.182,0.507-0.396,0.767-0.662c0.582-0.535,1.172-1.25,1.764-2.039l0.045-0.038c0,0-0.013,0-0.018,0   c0.521-0.696,1.043-1.448,1.563-2.191c0.267-0.344,0.581-0.613,0.959-0.8c0.385-0.178,0.812-0.288,1.247-0.387   c0.36-0.071,0.73-0.156,1.051-0.194c0.001,0.001,0.002,0.001,0.004,0.002c0.495,0.186,0.982,0.368,1.459,0.547   c0.238,0.09,0.474,0.178,0.706,0.266c0.266,0.083,0.527,0.165,0.786,0.247c0.488,0.174,1.042,0.267,1.558,0.377   c0.508,0.113,1.204,0.104,1.771,0.119c0.496-0.027,0.844-0.094,1.243-0.135l0.036-0.004l0.018-0.002l0.193-0.046l0.012-0.004   l0.088-0.029l0.176-0.06l0.344-0.119c0.226-0.083,0.445-0.163,0.657-0.241c0.208-0.104,0.404-0.208,0.593-0.311   c1.11,3.829,3.656,7.202,7.167,9.222c-0.365,0.791-0.676,1.728-0.867,2.767c-0.261,1.363-0.333,2.888-0.271,4.482   c0.048,1.597,0.234,3.276,0.3,4.971c0.058,1.66-0.04,3.482-1.09,4.229c-0.25,0.213-0.6,0.344-0.966,0.469l-0.299,0.062l-0.15,0.033   l-0.075,0.017l-0.033,0.008l-0.714,0.053l-0.744,0.057c-0.221-0.011-0.423-0.041-0.637-0.057l-0.639-0.053l-0.66-0.164   c-1.774-0.435-3.399-1.552-4.876-2.908c-1.513-1.322-2.865-2.927-4.741-4.07c-0.923-0.553-2.059-0.97-3.183-0.837   c-0.578-0.011-1.061,0.161-1.617,0.398c-0.493,0.25-0.929,0.571-1.304,0.93c-1.473,1.472-2.253,3.224-3.029,4.814   c-0.748,1.611-1.4,3.146-2.067,4.529c-0.662,1.385-1.33,2.625-2.018,3.663c-0.682,1.042-1.376,1.883-2.009,2.515   c-0.226,0.231-0.44,0.424-0.646,0.601c-0.013-0.016-0.02-0.036-0.034-0.051c-0.475-0.474-1.591-0.127-2.065,0.347   c-0.474,0.475-0.127,0.896,0.348,1.371c0.474,0.474,0.896,0.821,1.37,0.347c0.438-0.438,0.76-1.42,0.433-1.94   c0.217-0.169,0.443-0.355,0.685-0.58c0.668-0.608,1.409-1.428,2.147-2.451c0.744-1.02,1.477-2.243,2.208-3.608   c0.735-1.362,1.461-2.874,2.273-4.433c0.824-1.531,1.708-3.216,3.045-4.422c0.688-0.584,1.436-0.983,2.333-0.947   c0.873-0.07,1.716,0.287,2.489,0.793c1.56,1.036,2.853,2.669,4.356,4.126c1.472,1.478,3.26,2.885,5.415,3.526l0.803,0.232   c0.281,0.049,0.571,0.08,0.858,0.117c0.284,0.032,0.58,0.073,0.855,0.092l0.746-0.021l0.741-0.021l0.122-0.009l0.054-0.009   l0.106-0.017l0.212-0.035l0.424-0.072c0.567-0.154,1.152-0.348,1.673-0.724c1.096-0.716,1.658-1.943,1.897-2.969   c0.253-1.053,0.291-2.03,0.306-2.951c0.012-1.839-0.098-3.492-0.072-4.979c0.01-1.488,0.144-2.801,0.404-3.889   c0.204-0.874,0.491-1.59,0.803-2.169c0.701,0.24,1.418,0.449,2.169,0.586c3.036,0.551,6.016,0.123,8.66-1.014   c0.253,0.653,0.576,1.332,1.028,1.981c0.609,0.987,1.494,1.84,2.441,2.654l0.105,0.086l0.043,0.03l0.086,0.06l0.173,0.12   l0.348,0.243c0.233,0.163,0.47,0.328,0.709,0.495c0.45,0.341,1.043,0.657,1.583,0.989c0.282,0.168,0.566,0.336,0.852,0.506   c0.272,0.145,0.546,0.29,0.821,0.436c0.551,0.292,1.108,0.588,1.67,0.886c0.537,0.297,1.078,0.596,1.621,0.896l0.817,0.452   c0.279,0.162,0.538,0.356,0.809,0.533c0.169,0.115,0.335,0.229,0.504,0.343c0.007,0.081,0.01,0.182,0.007,0.303   c-0.002,0.063-0.004,0.129-0.006,0.195c-0.01,0.174,0.004,0.169,0.005,0.265c0.013,0.152,0.006,0.282,0.035,0.474   c0.031,0.188,0.064,0.382,0.099,0.584c0.046,0.177,0.093,0.36,0.142,0.548c0.059,0.192,0.119,0.39,0.182,0.591   c0.082,0.186,0.122,0.342,0.243,0.562c0.225,0.452,0.497,0.779,0.786,1.12c0.289,0.308,0.582,0.62,0.875,0.932   c0.142,0.143,0.282,0.325,0.394,0.442c0.118,0.172,0.258,0.352,0.324,0.504c0.172,0.315,0.294,0.695,0.319,1.058   c0.078,0.732-0.187,1.44-0.623,1.857c-0.211,0.217-0.462,0.352-0.693,0.449c-0.237,0.084-0.454,0.131-0.639,0.144   c-0.183,0.033-0.329,0.004-0.428,0.011c-0.1-0.002-0.153-0.003-0.153-0.003s0.053,0.007,0.151,0.02   c0.1,0.005,0.244,0.05,0.433,0.037c0.189,0.007,0.417-0.015,0.679-0.077c0.255-0.074,0.544-0.189,0.806-0.404   c0.537-0.408,0.938-1.185,0.941-2.049c0.014-0.435-0.066-0.871-0.245-1.312c-0.087-0.238-0.194-0.403-0.295-0.593   c-0.15-0.216-0.254-0.383-0.393-0.561c-0.253-0.337-0.507-0.675-0.757-1.007c-0.221-0.32-0.43-0.668-0.529-0.946   c-0.065-0.132-0.11-0.363-0.165-0.535c-0.03-0.17-0.062-0.336-0.091-0.498c-0.024-0.17-0.048-0.335-0.07-0.494   c-0.01-0.14-0.019-0.273-0.026-0.402c-0.009-0.089,0-0.2,0.008-0.309c0.44,0.309,0.877,0.617,1.288,0.939   c0.978,0.75,1.878,1.549,2.601,2.442c0.39,0.43,0.687,0.908,0.99,1.373l0.114,0.174c0.004-0.015,0.055,0.108,0.079,0.155   l0.184,0.389c0.118,0.257,0.251,0.513,0.354,0.762c0.32,0.959,0.55,1.96,0.588,2.905c0.067,0.942,0.001,1.819-0.09,2.591   c-0.094,0.773-0.227,1.443-0.356,1.991c-0.107,0.554-0.255,0.973-0.326,1.268c-0.08,0.292-0.123,0.447-0.123,0.447   s0.058-0.15,0.166-0.434c0.099-0.285,0.288-0.691,0.448-1.235c0.185-0.537,0.383-1.197,0.556-1.975   c0.168-0.775,0.325-1.668,0.351-2.662c0.052-0.992-0.068-2.073-0.354-3.246c-0.083-0.272-0.187-0.529-0.28-0.8l-0.146-0.404   c-0.034-0.084-0.027-0.1-0.096-0.24l-0.105-0.202c-0.28-0.542-0.562-1.104-0.94-1.615c-0.702-1.063-1.6-2.027-2.555-2.92   c-0.954-0.907-1.973-1.723-2.964-2.549c-0.479-0.425-1.015-0.802-1.573-1.178c-0.548-0.378-1.095-0.755-1.637-1.129   c-0.529-0.351-1.056-0.698-1.574-1.042c-0.14-0.092-0.276-0.183-0.415-0.274c0.111-0.033,0.222-0.066,0.332-0.101   c0.255-0.073,0.553-0.17,0.755-0.21c0.285-0.043,0.57-0.085,0.783-0.047c0.231-0.011,0.485,0.09,0.725,0.144   c0.473,0.177,0.909,0.404,1.28,0.615c0.743,0.424,1.271,0.641,1.271,0.641s-0.482-0.299-1.142-0.836   c-0.331-0.268-0.732-0.574-1.219-0.854c-0.263-0.108-0.511-0.263-0.84-0.314c-0.336-0.094-0.617-0.09-0.897-0.097   c-0.361,0.008-0.614,0.06-0.906,0.09c-0.274,0.038-0.551,0.074-0.755,0.079c-0.186,0.028-0.43,0.004-0.661-0.017   c-0.375-0.271-0.744-0.522-1.111-0.858c-0.421-0.36-0.831-0.714-1.231-1.057c-0.658-0.705-1.247-1.382-1.58-2.095   c-0.389-0.685-0.566-1.374-0.699-1.982c-0.006-0.036-0.009-0.068-0.014-0.104c2.854-2.134,4.997-5.209,5.842-8.791   c0.298-0.083,0.611-0.17,0.951-0.265c0.371-0.103,0.766-0.212,1.182-0.328l0.157-0.043l0.039-0.011   c-0.06,0.012,0.148-0.03-0.132,0.025l0.01-0.002l0.021-0.004l0.081-0.017l0.329-0.068c0.223-0.046,0.449-0.093,0.682-0.141   c0.462-0.094,0.838-0.119,1.29-0.192c0.438-0.036,0.899-0.044,1.368-0.056c0.226,0.022,0.455,0.045,0.687,0.067l0.353,0.03   l0.045,0.003l0.011,0.001c-0.225-0.063-0.055-0.016-0.102-0.029l0.025,0.007l0.103,0.027l0.206,0.055   c0.354,0.078,0.371,0.143,0.503,0.173c0.125,0.088,0.303,0.159,0.426,0.299c0.57,0.461,0.985,1.456,1.258,2.572   c0.295,1.125,0.438,2.376,0.8,3.713l0.082,0.294l0.079,0.224l0.16,0.446l0.161,0.446l0.223,0.481   c0.276,0.658,0.649,1.224,1.004,1.792c0.442,0.617,0.952,1.171,1.505,1.663c-0.012,0.06-0.02,0.104-0.02,0.104l0.057-0.072   c0.207,0.183,0.417,0.358,0.636,0.521c0.017,0.054,0.035,0.098,0.054,0.114c0.124,0.097,0.269,0.255,0.425,0.437   c0.637,0.703,1.31,1.904,2.063,3.087c0.39,0.587,0.805,1.169,1.279,1.648c0.251,0.226,0.479,0.459,0.747,0.619   c0.255,0.177,0.508,0.316,0.765,0.404c0.239,0.12,0.484,0.154,0.693,0.198c0.208,0.057,0.394,0.062,0.547,0.06   c0.303,0.006,0.476,0.009,0.476,0.009s-0.17-0.026-0.469-0.072c-0.148-0.018-0.327-0.048-0.52-0.13   c-0.194-0.07-0.418-0.132-0.628-0.276c-0.225-0.111-0.44-0.273-0.65-0.468c-0.223-0.175-0.405-0.423-0.604-0.656   c-0.374-0.498-0.688-1.093-0.981-1.701c-0.328-0.707-0.637-1.434-0.957-2.107c0.058,0.018,0.116,0.035,0.172,0.056l0.432,0.141   c0.218,0.063,0.3,0.057,0.455,0.088c0.274,0.044,0.547,0.088,0.814,0.131c0.562,0.044,1.146,0.062,1.672,0.046   c0.522-0.057,1.032-0.062,1.506-0.159c0.238-0.041,0.471-0.082,0.697-0.121c0.121-0.023,0.209-0.031,0.353-0.067l0.315-0.09   c0.414-0.134,0.812-0.2,1.177-0.37c0.361-0.159,0.699-0.307,1.013-0.444c0.291-0.168,0.559-0.322,0.8-0.461   c0.489-0.266,0.829-0.543,1.081-0.698c0.245-0.166,0.376-0.255,0.376-0.255s-0.139,0.075-0.399,0.216   c-0.267,0.131-0.63,0.372-1.139,0.585c-0.25,0.113-0.526,0.238-0.828,0.374c-0.309,0.102-0.643,0.211-1,0.327   c-0.348,0.127-0.773,0.158-1.191,0.249l-0.323,0.059l-0.312,0.025c-0.223,0.017-0.45,0.033-0.683,0.051   c-0.463,0.048-0.945,0.002-1.44,0.009c-0.492-0.037-0.966-0.096-1.479-0.182c-0.262-0.069-0.528-0.14-0.798-0.211   c-0.114-0.035-0.315-0.072-0.361-0.106l-0.362-0.161c-0.238-0.117-0.495-0.196-0.722-0.342c-0.225-0.146-0.452-0.293-0.681-0.441   c-0.185-0.14-0.36-0.292-0.533-0.448c-0.101-0.115-0.195-0.218-0.265-0.272c-0.056-0.051-0.086-0.078-0.13-0.117   c-0.477-0.494-0.905-1.047-1.26-1.659c-0.25-0.517-0.521-1.03-0.681-1.556c-0.192-0.444-0.355-1.246-0.453-1.703   c-0.193-1.129-0.22-2.41-0.421-3.724c-0.026-0.185-0.067-0.375-0.102-0.562c0.375,0.47,0.738,0.987,1.073,1.522   c0.45,0.719,0.893,1.498,1.411,2.159c0.248,0.337,0.535,0.63,0.819,0.893c0.128,0.144,0.309,0.229,0.452,0.339   c0.151,0.104,0.288,0.213,0.455,0.262c0.314,0.133,0.599,0.247,0.878,0.248c0.27,0.039,0.501,0.061,0.692,0.008   c0.377-0.06,0.593-0.094,0.593-0.094s-0.217,0.011-0.596,0.029c-0.188,0.031-0.413-0.014-0.665-0.079   c-0.261-0.026-0.518-0.167-0.792-0.319c-0.146-0.059-0.265-0.178-0.394-0.287c-0.122-0.118-0.274-0.205-0.381-0.355   c-0.238-0.273-0.473-0.57-0.674-0.915c-0.419-0.673-0.758-1.453-1.146-2.255c-0.704-1.436-1.588-2.837-2.624-3.756   c-0.175-0.298-0.377-0.588-0.624-0.855c-0.257-0.318-0.592-0.559-0.932-0.811c-0.387-0.231-0.866-0.468-1.071-0.525l-0.199-0.075   l-0.1-0.037l-0.024-0.009l-0.143-0.04l-0.061-0.013l-0.477-0.098c-0.319-0.062-0.634-0.123-0.944-0.184   c-0.612-0.055-1.209-0.101-1.79-0.109c-0.564,0.025-1.177,0.032-1.65,0.082c-0.236,0.025-0.467,0.049-0.692,0.073l-0.334,0.036   l-0.083,0.008l-0.021,0.002l-0.162,0.031l-0.041,0.007l-0.16,0.028c-0.329,0.057-0.633,0.11-0.934,0.163   c-0.075-2.719-0.888-5.306-2.26-7.542c0.09-0.267,0.212-0.783,0.386-1.154c0.087-0.217,0.182-0.457,0.286-0.718   c0.137-0.275,0.284-0.572,0.442-0.89c0.341-0.628,0.763-1.326,1.289-2.056c0.527-0.729,1.155-1.489,1.883-2.243   c0.186-0.186,0.373-0.375,0.562-0.565l0.071-0.072l0.036-0.036l0.018-0.018c-0.112,0.092-0.025,0.021-0.048,0.039l0.011-0.009   l0.165-0.141l0.334-0.285c0.465-0.426,0.872-0.684,1.291-0.98c0.912-0.57,1.956-1.11,3.105-1.493   c1.147-0.396,2.37-0.722,3.632-1.01c0.574-0.125,1.275-0.279,1.871-0.369c0.607-0.104,1.245-0.197,1.881-0.288   c0.821-0.125,1.638-0.255,2.446-0.407l0.026,0.066c0,0,0.101-0.049,0.247-0.122c0.354-0.07,0.71-0.129,1.057-0.218   c0.164-0.042,0.324-0.09,0.486-0.135c0.211-0.01,0.434-0.012,0.671,0c0.252,0.006,0.518,0.032,0.787,0.056l0.411,0.048   c0.194,0.027,0.297,0.021,0.45,0.034c0.282,0.016,0.565,0.033,0.844,0.049c0.289-0.007,0.585-0.046,0.86-0.068   c0.278-0.018,0.54-0.053,0.779-0.135c0.239-0.066,0.466-0.129,0.674-0.187c0.212-0.042,0.382-0.159,0.543-0.222   c0.157-0.073,0.295-0.137,0.407-0.19c0.225-0.104,0.353-0.164,0.353-0.164s-0.137,0.038-0.376,0.104   c-0.119,0.033-0.263,0.072-0.428,0.118c-0.168,0.036-0.344,0.12-0.557,0.126c-0.207,0.021-0.432,0.045-0.668,0.069   c-0.235,0.041-0.482,0.032-0.735,0.005c-0.253-0.022-0.506-0.025-0.77-0.062c-0.271-0.062-0.548-0.125-0.824-0.188   c-0.126-0.031-0.305-0.062-0.386-0.094l-0.017-0.005c0.312-0.136,0.618-0.281,0.906-0.44c1-0.5,1.928-1.19,2.682-1.82   c0.356-0.355,0.705-0.688,1.008-1.028c0.274-0.367,0.554-0.697,0.776-1.034c0.199-0.352,0.385-0.681,0.558-0.986   c0.142-0.318,0.243-0.624,0.35-0.891c0.238-0.526,0.251-0.994,0.337-1.286c0.062-0.299,0.096-0.458,0.096-0.458   S94.875,18.544,94.784,18.836z M21.512,55.251c0.001,0.002-0.02,0.013-0.022,0.018C21.495,55.262,21.502,55.254,21.512,55.251z    M21.479,55.286C21.477,55.294,21.477,55.293,21.479,55.286L21.479,55.286z M39.926,38.233c-0.039,0.046-0.074,0.096-0.112,0.142   C39.849,38.326,39.885,38.281,39.926,38.233z M57.307,52.552c-2.918,0-5.282-2.364-5.282-5.282c0-2.917,2.364-5.282,5.282-5.282   s5.282,2.365,5.282,5.282C62.589,50.188,60.225,52.552,57.307,52.552z"/><path d="M39.07,39.252L39.07,39.252l-0.002-0.014C39.065,39.229,39.067,39.25,39.07,39.252z"/></g></g><g id="SvgjsG1085" featureKey="text1" fill="#fff" transform="matrix(4.198135464034678,0,0,4.198135464034678,218.19901502322134,22.009330687134547)"><path d="M11.1 14.1 l3.02 4.62 c0.14 0.22 0.16 0.48 0.02 0.72 c-0.12 0.22 -0.36 0.36 -0.6 0.36 l-1.82 0 c-0.24 0 -0.46 -0.12 -0.58 -0.32 l-3.04 -4.82 l-3.56 0 l0 4.44 c0 0.38 -0.32 0.7 -0.7 0.7 l-1.52 0 c-0.38 0 -0.7 -0.32 -0.7 -0.7 l0 -6.58 c0 -0.38 0.32 -0.7 0.7 -0.7 l6.16 0 c1.16 0 1.94 -0.32 2.34 -1 c0.14 -0.22 0.2 -0.54 0.2 -0.92 c0 -0.66 -0.2 -1.12 -0.62 -1.48 c-0.44 -0.4 -1.06 -0.58 -1.84 -0.58 l-6.24 0 c-0.38 0 -0.7 -0.32 -0.7 -0.7 l0 -1.44 c0 -0.38 0.32 -0.7 0.7 -0.7 l6.42 0 c1.54 0 2.8 0.44 3.74 1.32 c0.98 0.88 1.46 2.08 1.46 3.58 c0 1.94 -0.86 3.34 -2.5 4.06 c-0.1 0.04 -0.22 0.1 -0.34 0.14 z M27 5 c0.4 0 0.7 0.32 0.7 0.7 l0 1.44 c0 0.38 -0.3 0.7 -0.7 0.7 l-7.56 0 l0 3.06 l6.68 0 c0.4 0 0.7 0.32 0.7 0.7 l0 1.46 c0 0.38 -0.3 0.7 -0.7 0.7 l-6.68 0 l0 3.08 l7.56 0 c0.4 0 0.7 0.32 0.7 0.7 l0 1.44 c0 0.38 -0.3 0.7 -0.7 0.7 l-9.76 0 c-0.38 0 -0.7 -0.32 -0.7 -0.7 l0 -13.28 c0 -0.38 0.32 -0.7 0.7 -0.7 l9.76 0 z M41.76 5 c0.22 0 0.44 0.12 0.58 0.3 c0.12 0.2 0.16 0.44 0.06 0.66 l-5.38 13.28 c-0.1 0.26 -0.36 0.44 -0.64 0.44 l-1.72 0 c-0.3 0 -0.54 -0.18 -0.66 -0.44 l-5.38 -13.28 c-0.08 -0.22 -0.06 -0.46 0.08 -0.66 c0.12 -0.18 0.34 -0.3 0.58 -0.3 l1.64 0 c0.28 0 0.54 0.18 0.64 0.44 l3.96 9.94 l3.94 -9.94 c0.12 -0.26 0.36 -0.44 0.66 -0.44 l1.64 0 z M50.739999999999995 5 c2.16 0 3.98 0.74 5.38 2.2 c1.36 1.42 2.06 3.2 2.06 5.3 s-0.7 3.88 -2.06 5.3 c-1.4 1.46 -3.22 2.2 -5.38 2.2 s-3.98 -0.74 -5.38 -2.2 c-1.36 -1.42 -2.06 -3.2 -2.06 -5.3 s0.7 -3.88 2.06 -5.3 c1.4 -1.46 3.22 -2.2 5.38 -2.2 z M50.739999999999995 17.14 c1.4 0 2.48 -0.44 3.32 -1.32 c0.82 -0.86 1.22 -1.96 1.22 -3.32 s-0.4 -2.44 -1.22 -3.32 c-0.84 -0.88 -1.92 -1.32 -3.32 -1.32 s-2.48 0.44 -3.32 1.32 c-0.82 0.88 -1.22 1.96 -1.22 3.32 s0.4 2.46 1.22 3.32 c0.84 0.88 1.92 1.32 3.32 1.32 z M74.19999999999999 5 c0.38 0 0.7 0.32 0.7 0.7 l0 13.28 c0 0.38 -0.32 0.7 -0.7 0.7 l-1.5 0 c-0.38 0 -0.7 -0.32 -0.7 -0.7 l0 -8.96 l-3.68 4.72 c-0.12 0.16 -0.32 0.26 -0.54 0.26 l0 0 c-0.22 0 -0.42 -0.1 -0.54 -0.26 l-3.76 -4.74 l0 8.98 c0 0.38 -0.32 0.7 -0.7 0.7 l-1.5 0 c-0.38 0 -0.7 -0.32 -0.7 -0.7 l0 -13.28 c0 -0.38 0.32 -0.7 0.7 -0.7 l1.74 0 c0.22 0 0.42 0.1 0.56 0.28 l4.2 5.56 l4.12 -5.56 c0.12 -0.18 0.34 -0.28 0.56 -0.28 l1.74 0 z M85.5 5.42 l5.6 13.22 c0.06 0.1 0.1 0.22 0.1 0.34 c0 0.38 -0.3 0.7 -0.7 0.7 l0 0 l-1.66 0 c-0.28 0 -0.54 -0.16 -0.64 -0.42 l-1.46 -3.44 l-5.66 0 l-1.44 3.44 c-0.1 0.26 -0.36 0.42 -0.64 0.42 l-1.66 0 c-0.24 0 -0.46 -0.12 -0.58 -0.32 c-0.14 -0.18 -0.16 -0.44 -0.06 -0.64 l5.64 -13.3 c0.1 -0.26 0.36 -0.42 0.64 -0.42 l1.88 0 c0.28 0 0.54 0.16 0.64 0.42 z M83.92 9.06 l-1.66 3.98 l3.32 0 z M103.06 5 c0.38 0 0.68 0.32 0.68 0.7 l0 1.44 c0 0.38 -0.3 0.7 -0.68 0.7 l-3.94 0 l0 11.14 c0 0.38 -0.32 0.7 -0.7 0.7 l-1.5 0 c-0.4 0 -0.7 -0.32 -0.7 -0.7 l0 -11.14 l-3.94 0 c-0.38 0 -0.7 -0.32 -0.7 -0.7 l0 -1.44 c0 -0.38 0.32 -0.7 0.7 -0.7 l10.78 0 z M107.83999999999999 5 c0.38 0 0.7 0.32 0.7 0.7 l0 13.28 c0 0.38 -0.32 0.7 -0.7 0.7 l-1.5 0 c-0.38 0 -0.7 -0.32 -0.7 -0.7 l0 -13.28 c0 -0.38 0.32 -0.7 0.7 -0.7 l1.5 0 z M116.3 8.22 c-0.52 0.22 -0.98 0.54 -1.34 0.96 c-0.76 0.84 -1.12 1.94 -1.12 3.32 s0.36 2.48 1.12 3.34 c0.78 0.88 1.9 1.3 3.44 1.3 c0.82 0 1.5 -0.2 2.1 -0.6 c0.62 -0.42 1.06 -0.94 1.36 -1.64 c0.1 -0.26 0.36 -0.42 0.64 -0.42 l1.58 0 c0.22 0 0.44 0.1 0.56 0.28 c0.14 0.2 0.18 0.42 0.1 0.64 c-0.5 1.4 -1.32 2.5 -2.44 3.3 c-1.2 0.86 -2.62 1.3 -4.24 1.3 c-2.14 0 -3.9 -0.74 -5.24 -2.22 c-1.24 -1.4 -1.88 -3.18 -1.88 -5.28 s0.64 -3.88 1.88 -5.28 c1.34 -1.48 3.1 -2.22 5.24 -2.22 c1.62 0 3.04 0.44 4.24 1.3 c1.12 0.8 1.94 1.92 2.44 3.3 c0.08 0.22 0.04 0.46 -0.1 0.64 c-0.12 0.18 -0.34 0.28 -0.56 0.28 l-1.58 0 c-0.28 0 -0.54 -0.16 -0.64 -0.42 c-0.3 -0.7 -0.74 -1.22 -1.36 -1.64 c-0.6 -0.4 -1.28 -0.6 -2.1 -0.6 c-0.86 0 -1.56 0.12 -2.1 0.36 z M133.64000000000001 5 c2.16 0 3.98 0.74 5.38 2.2 c1.36 1.42 2.06 3.2 2.06 5.3 s-0.7 3.88 -2.06 5.3 c-1.4 1.46 -3.22 2.2 -5.38 2.2 s-3.98 -0.74 -5.38 -2.2 c-1.36 -1.42 -2.06 -3.2 -2.06 -5.3 s0.7 -3.88 2.06 -5.3 c1.4 -1.46 3.22 -2.2 5.38 -2.2 z M133.64000000000001 17.14 c1.4 0 2.48 -0.44 3.32 -1.32 c0.82 -0.86 1.22 -1.96 1.22 -3.32 s-0.4 -2.44 -1.22 -3.32 c-0.84 -0.88 -1.92 -1.32 -3.32 -1.32 s-2.48 0.44 -3.32 1.32 c-0.82 0.88 -1.22 1.96 -1.22 3.32 s0.4 2.46 1.22 3.32 c0.84 0.88 1.92 1.32 3.32 1.32 z"/></g><g id="SvgjsG1086" featureKey="text3" fill="#fff" transform="matrix(1.391419201983769,0,0,1.391419201983769,224.04130585217302,119.63757523325708)"><path d="M14.119 23.69492 c0.08458 0.16966 0.033898 0.30508 -0.15254 0.30508 l-1.5424 0 c-0.15254 0 -0.23712 -0.067631 -0.28797 -0.18644 l-1.0508 -2.2034 l-7.3051 0 l-1.0339 2.2034 c-0.067797 0.11881 -0.15254 0.18644 -0.28814 0.18644 l-1.5593 0 c-0.16949 0 -0.25424 -0.13543 -0.18644 -0.30508 l6.3898 -13.186 c0.050847 -0.11864 0.13559 -0.15254 0.22034 -0.15254 l0.22017 0 c0.084746 0 0.15254 0.033898 0.22034 0.15254 z M4.6103 19.8646 l5.6441 0 l-2.8136 -6 z M26.457457627118643 10.424 l-1.3729 0 c-0.16949 0 -0.27119 0.10186 -0.27119 0.28831 l0 8.1864 c0 2.2542 -1.5932 3.3729 -3.4746 3.3729 c-1.8475 0 -3.3898 -1.1186 -3.3898 -3.3729 l0 -8.1864 c0 -0.18644 -0.10153 -0.28831 -0.27119 -0.28831 l-1.339 0 c-0.18644 0 -0.30508 0.10186 -0.30508 0.28831 l0 8.322 c0 2.8136 1.9661 5.0846 5.3051 5.0846 c3.3559 0 5.3729 -2.271 5.3898 -5.0846 l0 -8.322 c0 -0.18644 -0.10169 -0.28831 -0.27119 -0.28831 z M39.05025423728814 10.441 c0.15254 0 0.27102 0.10169 0.27102 0.27119 l0 1.3051 c0 0.15254 -0.11864 0.27119 -0.27119 0.27119 l-4.0846 0 l0 11.424 c0 0.18644 -0.10169 0.28797 -0.27119 0.28797 l-0.98305 0 c-0.44068 0 -0.66102 -0.28797 -0.66102 -0.6778 l0 -11.034 l-4.0846 0 c-0.15254 0 -0.28814 -0.10169 -0.28814 -0.27119 l0 -1.288 c0 -0.16966 0.11864 -0.28831 0.28814 -0.28831 l10.085 0 z M48.05064576271186 24.11864 c3.8136 0 6.9153 -3.0337 6.9153 -6.9151 c0 -3.8305 -3.1017 -6.8814 -6.9153 -6.8814 c-3.8475 0 -6.9492 3.0508 -6.9492 6.8814 c0 3.8814 3.1017 6.9151 6.9492 6.9151 z M48.05064576271186 22.2714 c-2.7458 0 -5.0339 -2.2881 -5.0339 -5.0678 c0 -2.7456 2.2881 -5.0337 5.0339 -5.0337 c2.7288 0 5.0169 2.2881 5.0169 5.0337 c0 2.7797 -2.2881 5.0678 -5.0169 5.0678 z M72.52505084745763 10.441 c0.15254 0 0.27168 0.11881 0.27168 0.28847 l0 12.983 c0 0.15254 -0.10169 0.28797 -0.27136 0.28797 l-1.339 0 c-0.18644 0 -0.28814 -0.11864 -0.28814 -0.28814 l0 -9.339 l-5.5254 9.0339 c-0.084746 0.13559 -0.16949 0.20339 -0.30508 0.20339 l-0.08458 0 c-0.13559 0 -0.22034 -0.067797 -0.30508 -0.20339 l-5.5085 -9.0339 l0 9.339 c0 0.15254 -0.11881 0.28797 -0.28831 0.28797 l-1.339 0 c-0.16949 0 -0.28831 -0.11864 -0.28831 -0.28814 l0 -13 c0 -0.15254 0.10186 -0.27119 0.27119 -0.27119 l1.1525 0 c0.15254 0 0.25424 0.050847 0.33898 0.18644 l6.0169 9.8307 l6.0168 -9.8307 c0.067797 -0.13559 0.16949 -0.18644 0.33898 -0.18644 l1.1356 0 z M88.1867966101695 23.69492 c0.08458 0.16966 0.033898 0.30508 -0.15254 0.30508 l-1.5424 0 c-0.15254 0 -0.23712 -0.067631 -0.28797 -0.18644 l-1.0508 -2.2034 l-7.3051 0 l-1.0339 2.2034 c-0.067797 0.11881 -0.15254 0.18644 -0.28814 0.18644 l-1.5593 0 c-0.16949 0 -0.25424 -0.13543 -0.18644 -0.30508 l6.3898 -13.186 c0.050847 -0.11864 0.13559 -0.15254 0.22034 -0.15254 l0.22017 0 c0.084746 0 0.15254 0.033898 0.22034 0.15254 z M78.67809661016949 19.8646 l5.6441 0 l-2.8136 -6 z M100.05025423728814 10.441 c0.15254 0 0.27102 0.10169 0.27102 0.27119 l0 1.3051 c0 0.15254 -0.11864 0.27119 -0.27119 0.27119 l-4.0846 0 l0 11.424 c0 0.18644 -0.10169 0.28797 -0.27119 0.28797 l-0.98305 0 c-0.44068 0 -0.66102 -0.28797 -0.66102 -0.6778 l0 -11.034 l-4.0846 0 c-0.15254 0 -0.28814 -0.10169 -0.28814 -0.27119 l0 -1.288 c0 -0.16966 0.11864 -0.28831 0.28814 -0.28831 l10.085 0 z M111.00004576271186 12.288 l-6.7288 0 l0 4.1356 l3.8983 0 c0.16949 0 0.28814 0.11864 0.28814 0.28814 l0 1.2712 c0 0.18644 -0.11864 0.28814 -0.28814 0.28814 l-3.8983 0 l0.016784 3.8814 l6.712 0 c0.16949 0 0.28814 0.11864 0.28814 0.28814 l0 1.2712 c0 0.16949 -0.11864 0.28814 -0.28814 0.28814 l-8.3559 0 c-0.16949 0 -0.28831 -0.11864 -0.28831 -0.28814 l0 -13 c0 -0.15254 0.10186 -0.27119 0.27119 -0.27119 l8.3731 0 c0.16949 0 0.28814 0.11864 0.28814 0.27119 l0 1.3051 c0 0.16949 -0.11864 0.27119 -0.28814 0.27119 z M118.16928305084745 10.441 c4.5085 0 6.9324 3.4917 6.9324 6.7119 c0 3.5424 -2.4407 6.8475 -6.9153 6.8475 l-4.5424 0 c-0.16966 0 -0.28831 -0.11864 -0.28831 -0.28814 l0 -13 c0 -0.15254 0.10169 -0.27119 0.27119 -0.27119 l4.5424 0 z M118.22038305084746 22.1529 c3.1356 0 4.9324 -2.4576 4.9154 -5.0169 c0 -2.5085 -1.729 -4.8475 -4.9154 -4.8475 l-2.9661 0 l0.016949 9.8644 l2.9492 0 z  M141.8809152542373 23.67797 c0.11864 0.16949 0.034064 0.32203 -0.1861 0.32203 l-1.2544 0 c-0.37288 0 -0.67814 -0.33881 -0.81356 -0.5422 l-2.6441 -3.8983 l-3.3559 0 l0 4.1525 c0 0.18644 -0.10169 0.28797 -0.27119 0.28797 l-1.3729 0 c-0.16949 0 -0.27119 -0.10153 -0.27119 -0.28797 l0 -13 c0 -0.15254 0.10169 -0.27119 0.27119 -0.27119 l5.2203 0 c2.9659 0 4.5592 2.5254 4.5592 4.5592 c0 1.6949 -1.0168 3.5934 -2.9322 4.2881 z M133.6273152542373 12.288 l0 5.4237 l3.3559 0 c1.9153 0 2.8644 -1.3729 2.8644 -2.7458 c0 -1.3559 -0.9661 -2.678 -2.8644 -2.678 l-3.3559 0 z M152.59326610169492 12.288 l-6.7288 0 l0 4.1356 l3.8983 0 c0.16949 0 0.28814 0.11864 0.28814 0.28814 l0 1.2712 c0 0.18644 -0.11864 0.28814 -0.28814 0.28814 l-3.8983 0 l0.016784 3.8814 l6.712 0 c0.16949 0 0.28814 0.11864 0.28814 0.28814 l0 1.2712 c0 0.16949 -0.11864 0.28814 -0.28814 0.28814 l-8.3559 0 c-0.16949 0 -0.28831 -0.11864 -0.28831 -0.28814 l0 -13 c0 -0.15254 0.10186 -0.27119 0.27119 -0.27119 l8.3731 0 c0.16949 0 0.28814 0.11864 0.28814 0.27119 l0 1.3051 c0 0.16949 -0.11864 0.27119 -0.28814 0.27119 z M167.3902033898305 10.441 c0.15254 0 0.32186 0.13559 0.22017 0.35593 l-6.2373 13.068 c-0.050847 0.11864 -0.16966 0.22017 -0.30525 0.22017 l-0.13543 0 c-0.13559 0 -0.25424 -0.10153 -0.30508 -0.22017 l-6.2373 -13.085 c-0.10169 -0.20339 0.067797 -0.33898 0.22034 -0.33898 l1.7119 0 c0.16949 0 0.23729 0.13559 0.30508 0.30508 l4.3729 9.5254 l4.3731 -9.5254 c0.084746 -0.16949 0.13559 -0.30508 0.30508 -0.30508 l1.7119 0 z M176.0336966101695 24.11864 c3.8136 0 6.9153 -3.0337 6.9153 -6.9151 c0 -3.8305 -3.1017 -6.8814 -6.9153 -6.8814 c-3.8475 0 -6.9492 3.0508 -6.9492 6.8814 c0 3.8814 3.1017 6.9151 6.9492 6.9151 z M176.0336966101695 22.2714 c-2.7458 0 -5.0339 -2.2881 -5.0339 -5.0678 c0 -2.7456 2.2881 -5.0337 5.0339 -5.0337 c2.7288 0 5.0169 2.2881 5.0169 5.0337 c0 2.7797 -2.2881 5.0678 -5.0169 5.0678 z M193.28810169491527 22.1525 c0.15238 0 0.27102 0.10169 0.27102 0.28814 l0 1.2881 c0 0.15238 -0.11881 0.27102 -0.27119 0.27102 l-8 0 c-0.15254 0 -0.22034 -0.11864 -0.22034 -0.27102 l0 -13.017 c0 -0.15254 0.10169 -0.27119 0.27136 -0.27119 l1.3729 0 c0.15254 0 0.27119 0.11864 0.27119 0.27119 l0 11.441 l6.3051 0 z M206.10152542372884 10.424 l-1.3729 0 c-0.16949 0 -0.27119 0.10186 -0.27119 0.28831 l0 8.1864 c0 2.2542 -1.5932 3.3729 -3.4746 3.3729 c-1.8475 0 -3.3898 -1.1186 -3.3898 -3.3729 l0 -8.1864 c0 -0.18644 -0.10153 -0.28831 -0.27119 -0.28831 l-1.339 0 c-0.18644 0 -0.30508 0.10186 -0.30508 0.28831 l0 8.322 c0 2.8136 1.9661 5.0846 5.3051 5.0846 c3.3559 0 5.3729 -2.271 5.3898 -5.0846 l0 -8.322 c0 -0.18644 -0.10169 -0.28831 -0.27119 -0.28831 z M218.69432203389832 10.441 c0.15254 0 0.27102 0.10169 0.27102 0.27119 l0 1.3051 c0 0.15254 -0.11864 0.27119 -0.27119 0.27119 l-4.0846 0 l0 11.424 c0 0.18644 -0.10169 0.28797 -0.27119 0.28797 l-0.98305 0 c-0.44068 0 -0.66102 -0.28797 -0.66102 -0.6778 l0 -11.034 l-4.0846 0 c-0.15254 0 -0.28814 -0.10169 -0.28814 -0.27119 l0 -1.288 c0 -0.16966 0.11864 -0.28831 0.28814 -0.28831 l10.085 0 z M222.66101355932204 10.441 l-1.3053 -0.00016552 c-0.16949 0 -0.27119 0.11864 -0.27119 0.27119 l0 13 c0 0.16949 0.11864 0.28814 0.28831 0.28814 l1.3051 0 c0.15254 0 0.25424 -0.13543 0.25424 -0.28797 l0 -13 c0 -0.15254 -0.11864 -0.27119 -0.27119 -0.27119 z M232.25403559322035 24.11864 c3.8136 0 6.9153 -3.0337 6.9153 -6.9151 c0 -3.8305 -3.1017 -6.8814 -6.9153 -6.8814 c-3.8475 0 -6.9492 3.0508 -6.9492 6.8814 c0 3.8814 3.1017 6.9151 6.9492 6.9151 z M232.25403559322035 22.2714 c-2.7458 0 -5.0339 -2.2881 -5.0339 -5.0678 c0 -2.7456 2.2881 -5.0337 5.0339 -5.0337 c2.7288 0 5.0169 2.2881 5.0169 5.0337 c0 2.7797 -2.2881 5.0678 -5.0169 5.0678 z M252.8814406779661 10.441 c0.15254 0 0.27153 0.11881 0.27153 0.25441 l0 13.051 c0 0.13559 -0.10169 0.25424 -0.25424 0.25424 l-0.47458 0 c-0.35593 0 -0.72881 -0.25424 -1.2034 -0.77966 l-7.8644 -9.0339 l0 9.5254 c0 0.15254 -0.11864 0.27119 -0.27119 0.27119 l-1.339 0.016784 c-0.16949 0 -0.28831 -0.11864 -0.28831 -0.28814 l0 -13 c0 -0.15254 0.11881 -0.27119 0.27119 -0.27119 l0.79661 0 c0.15254 0 0.25424 0.067797 0.38983 0.22034 l8.3388 9.7288 l0 -9.6949 c0 -0.13559 0.10169 -0.25424 0.25424 -0.25424 l1.3729 0 z"/></g>
			</g>
		</svg>
	