{
    "title": "Offer",
    "type": "object",
    "properties": {
        "title": {
            "type": "string"
        },
        "image": {
            "type": "string"
        }
    },
    "required": ["title","image"]
}